…
Let's filter for two countries, Brazil and Canada, and then select to only work with the country, year, and life expectancy for each:


```r
df_BRCA <- gapminder %>%
  filter(year, country=="Canada" | country=="Brazil") %>% 
  select(year, country, lifeExp)

df_BRCA
```

```
## # A tibble: 24 x 3
##     year country lifeExp
##    <int>  <fctr>   <dbl>
##  1  1952  Brazil  50.917
##  2  1957  Brazil  53.285
##  3  1962  Brazil  55.665
##  4  1967  Brazil  57.632
##  5  1972  Brazil  59.504
##  6  1977  Brazil  61.489
##  7  1982  Brazil  63.336
##  8  1987  Brazil  65.205
##  9  1992  Brazil  67.057
## 10  1997  Brazil  69.388
## # ... with 14 more rows
```
…
